<?xml version="1.0" encoding="UTF-8" standalone="no"?>
<svg
   xmlns:dc="http://purl.org/dc/elements/1.1/"
   xmlns:cc="http://creativecommons.org/ns#"
   xmlns:rdf="http://www.w3.org/1999/02/22-rdf-syntax-ns#"
   xmlns:svg="http://www.w3.org/2000/svg"
   xmlns="http://www.w3.org/2000/svg"
   xmlns:sodipodi="http://sodipodi.sourceforge.net/DTD/sodipodi-0.dtd"
   xmlns:inkscape="http://www.inkscape.org/namespaces/inkscape"
   width="250"
   height="250"
   viewBox="0 0 66.145833 66.145833"
   version="1.1"
   id="svg8"
   inkscape:version="1.0.2 (e86c870879, 2021-01-15, custom)"
   sodipodi:docname="alpha-n.svg">
  <defs
     id="defs2" />
  <sodipodi:namedview
     id="base"
     pagecolor="#ffffff"
     bordercolor="#666666"
     borderopacity="1.0"
     inkscape:pageopacity="0.0"
     inkscape:pageshadow="2"
     inkscape:zoom="1.979899"
     inkscape:cx="47.414738"
     inkscape:cy="164.9333"
     inkscape:document-units="px"
     inkscape:current-layer="layer1"
     inkscape:document-rotation="0"
     showgrid="false"
     inkscape:window-width="1920"
     inkscape:window-height="1027"
     inkscape:window-x="0"
     inkscape:window-y="0"
     inkscape:window-maximized="1"
     units="px"
     fit-margin-top="0"
     fit-margin-left="0"
     fit-margin-right="0"
     fit-margin-bottom="0"
     showborder="true"
     inkscape:showpageshadow="true"
     showguides="true"
     inkscape:guide-bbox="true"
     inkscape:lockguides="false">
    <sodipodi:guide
       position="9.2411051,60.308786"
       orientation="1,0"
       id="guide938"
       inkscape:locked="false" />
    <sodipodi:guide
       position="56.873751,59.111806"
       orientation="1,0"
       id="guide940"
       inkscape:locked="false" />
    <sodipodi:guide
       position="5.934793,56.881421"
       orientation="0,-1"
       id="guide942"
       inkscape:locked="false" />
    <sodipodi:guide
       position="52.614665,9.2823182"
       orientation="0,-1"
       id="guide944"
       inkscape:locked="false" />
    <sodipodi:guide
       position="38.470041,33.091492"
       orientation="0,-1"
       id="guide875" />
    <sodipodi:guide
       position="32.932681,39.748097"
       orientation="1,0"
       id="guide879" />
    <sodipodi:guide
       position="-3.6081386,14.696449"
       orientation="0,-1"
       id="guide887" />
  </sodipodi:namedview>
  <metadata
     id="metadata5">
    <rdf:RDF>
      <cc:Work
         rdf:about="">
        <dc:format>image/svg+xml</dc:format>
        <dc:type
           rdf:resource="http://purl.org/dc/dcmitype/StillImage" />
        <dc:title />
      </cc:Work>
    </rdf:RDF>
  </metadata>
  <g
     inkscape:label="Layer 1"
     inkscape:groupmode="layer"
     id="layer1"
     transform="translate(-0.08041364,-0.51138639)">
    <g
       aria-label="n"
       id="text1469"
       style="font-weight:bold;font-size:58.9933px;line-height:1.25;font-family:'Noto Sans';-inkscape-font-specification:'Noto Sans Bold';fill:#000000;stroke-width:41.962"
       inkscape:transform-center-x="5.0064505"
       inkscape:transform-center-y="3.5629031">
      <path
         d="m 35.287539,51.98119 0.294966,-3.303625 q 1.06188,-0.70792 2.890672,-1.533826 V 32.277427 q 0,-2.418725 -1.120873,-3.657585 -1.120872,-1.297852 -3.185638,-1.297852 -1.769799,0 -3.067651,0.530939 -1.23886,0.471947 -2.713692,1.7698 v 17.580003 l 1.356846,0.294967 q 1.061879,0.235973 1.474832,0.589933 0.412953,0.35396 0.412953,1.061879 0,0.943893 -0.471946,2.831679 H 14.993843 l 0.35396,-3.303625 q 1.828792,-0.943893 3.893558,-1.710806 V 27.32199 l -4.778457,-1.06188 q -0.235974,-0.884899 -0.235974,-2.123759 0,-1.592819 2.949665,-2.359732 5.663357,-1.415839 9.674902,-1.415839 l 0.412953,4.365504 q 4.778457,-4.365504 10.795774,-4.365504 4.660471,0 7.079196,2.713692 2.477719,2.713692 2.477719,7.905102 v 15.928192 l 1.887786,0.471946 q 1.474832,0.412953 1.887785,0.70792 0.412953,0.294966 0.412953,1.061879 0,0.53094 -0.17698,1.415839 -0.117986,0.8849 -0.294966,1.41584 z"
         style="font-style:normal;font-variant:normal;font-weight:bold;font-stretch:normal;font-size:58.9933px;font-family:Bookerly;-inkscape-font-specification:'Bookerly Bold';text-align:center;text-anchor:middle;fill:#000000;stroke-width:41.962"
         id="path7802" />
    </g>
  </g>
</svg>
