<?xml version="1.0" encoding="UTF-8" standalone="no"?>
<svg
   xmlns:dc="http://purl.org/dc/elements/1.1/"
   xmlns:cc="http://creativecommons.org/ns#"
   xmlns:rdf="http://www.w3.org/1999/02/22-rdf-syntax-ns#"
   xmlns:svg="http://www.w3.org/2000/svg"
   xmlns="http://www.w3.org/2000/svg"
   xmlns:sodipodi="http://sodipodi.sourceforge.net/DTD/sodipodi-0.dtd"
   xmlns:inkscape="http://www.inkscape.org/namespaces/inkscape"
   width="250"
   height="250"
   viewBox="0 0 66.145833 66.145833"
   version="1.1"
   id="svg8"
   inkscape:version="1.0.2 (e86c870879, 2021-01-15, custom)"
   sodipodi:docname="numeric-0-white.svg">
  <defs
     id="defs2" />
  <sodipodi:namedview
     id="base"
     pagecolor="#ffffff"
     bordercolor="#666666"
     borderopacity="1.0"
     inkscape:pageopacity="0.0"
     inkscape:pageshadow="2"
     inkscape:zoom="1.979899"
     inkscape:cx="47.414738"
     inkscape:cy="194.25662"
     inkscape:document-units="px"
     inkscape:current-layer="layer1"
     inkscape:document-rotation="0"
     showgrid="false"
     inkscape:window-width="1920"
     inkscape:window-height="1027"
     inkscape:window-x="0"
     inkscape:window-y="0"
     inkscape:window-maximized="1"
     units="px"
     fit-margin-top="0"
     fit-margin-left="0"
     fit-margin-right="0"
     fit-margin-bottom="0"
     showborder="true"
     inkscape:showpageshadow="true"
     showguides="true"
     inkscape:guide-bbox="true"
     inkscape:lockguides="false"
     inkscape:pagecheckerboard="true">
    <sodipodi:guide
       position="9.2411051,60.308786"
       orientation="1,0"
       id="guide938"
       inkscape:locked="false" />
    <sodipodi:guide
       position="56.873751,59.111806"
       orientation="1,0"
       id="guide940"
       inkscape:locked="false" />
    <sodipodi:guide
       position="5.934793,56.881421"
       orientation="0,-1"
       id="guide942"
       inkscape:locked="false" />
    <sodipodi:guide
       position="52.614665,9.2823182"
       orientation="0,-1"
       id="guide944"
       inkscape:locked="false" />
    <sodipodi:guide
       position="38.470041,33.091492"
       orientation="0,-1"
       id="guide875" />
    <sodipodi:guide
       position="32.932681,39.748097"
       orientation="1,0"
       id="guide879" />
    <sodipodi:guide
       position="-3.6081386,14.696449"
       orientation="0,-1"
       id="guide887" />
  </sodipodi:namedview>
  <metadata
     id="metadata5">
    <rdf:RDF>
      <cc:Work
         rdf:about="">
        <dc:format>image/svg+xml</dc:format>
        <dc:type
           rdf:resource="http://purl.org/dc/dcmitype/StillImage" />
        <dc:title />
      </cc:Work>
    </rdf:RDF>
  </metadata>
  <g
     inkscape:label="Layer 1"
     inkscape:groupmode="layer"
     id="layer1"
     transform="translate(-0.08041364,-0.51138639)">
    <g
       id="g860">
      <g
         aria-label="0"
         id="text1469"
         style="font-weight:bold;font-size:58.9933px;line-height:1.25;font-family:'Noto Sans';-inkscape-font-specification:'Noto Sans Bold';fill:#ffffff;stroke:#000000;stroke-width:0.529167;stroke-miterlimit:4;stroke-dasharray:none;stroke-opacity:1"
         inkscape:transform-center-x="5.0064505"
         inkscape:transform-center-y="3.5629031">
        <path
           d="m 32.632842,46.376826 q 3.657584,0 5.54537,-3.952551 1.887786,-3.952551 1.887786,-11.444701 0,-6.430269 -1.828793,-9.910874 -1.828792,-3.480605 -5.19141,-3.480605 -3.657585,0 -5.54537,3.952551 -1.887786,3.952551 -1.887786,11.444701 0,6.43027 1.828792,9.910874 1.828793,3.480605 5.191411,3.480605 z m -0.589933,6.489263 q -7.610136,0 -11.680674,-5.01443 -4.011544,-5.073424 -4.011544,-14.630339 0,-6.843223 2.005772,-11.79866 2.005772,-5.014431 5.89933,-7.66913 3.893558,-2.654698 9.379935,-2.654698 7.610136,0 11.62168,5.073424 4.070538,5.01443 4.070538,14.571345 0,6.843223 -2.005772,11.857654 -2.005772,4.955437 -5.89933,7.610136 -3.893558,2.654698 -9.379935,2.654698 z"
           style="font-style:normal;font-variant:normal;font-weight:bold;font-stretch:normal;font-size:58.9933px;font-family:Bookerly;-inkscape-font-specification:'Bookerly Bold';text-align:center;text-anchor:middle;fill:#ffffff;stroke:#000000;stroke-width:0.529167;stroke-miterlimit:4;stroke-dasharray:none;stroke-opacity:1"
           id="path841" />
      </g>
      <path
         id="path4168"
         style="fill:#ffffff;stroke:#000a28;stroke-width:0.529167;stroke-linecap:round;stroke-miterlimit:4;stroke-dasharray:none;stroke-opacity:1"
         d="m 35.791013,31.98246 a 2.9516957,2.9516957 0 0 1 -2.951696,2.951696 2.9516957,2.9516957 0 0 1 -2.951695,-2.951696 2.9516957,2.9516957 0 0 1 2.951695,-2.951696 2.9516957,2.9516957 0 0 1 2.951696,2.951696 z" />
    </g>
  </g>
</svg>
