<?xml version="1.0" encoding="UTF-8" standalone="no"?>
<svg
   xmlns:dc="http://purl.org/dc/elements/1.1/"
   xmlns:cc="http://creativecommons.org/ns#"
   xmlns:rdf="http://www.w3.org/1999/02/22-rdf-syntax-ns#"
   xmlns:svg="http://www.w3.org/2000/svg"
   xmlns="http://www.w3.org/2000/svg"
   xmlns:sodipodi="http://sodipodi.sourceforge.net/DTD/sodipodi-0.dtd"
   xmlns:inkscape="http://www.inkscape.org/namespaces/inkscape"
   width="250"
   height="250"
   viewBox="0 0 66.145833 66.145833"
   version="1.1"
   id="svg8"
   inkscape:version="1.0.2 (e86c870879, 2021-01-15, custom)"
   sodipodi:docname="alpha-amp.svg">
  <defs
     id="defs2" />
  <sodipodi:namedview
     id="base"
     pagecolor="#ffffff"
     bordercolor="#666666"
     borderopacity="1.0"
     inkscape:pageopacity="0.0"
     inkscape:pageshadow="2"
     inkscape:zoom="1.979899"
     inkscape:cx="47.414738"
     inkscape:cy="164.9333"
     inkscape:document-units="px"
     inkscape:current-layer="layer1"
     inkscape:document-rotation="0"
     showgrid="false"
     inkscape:window-width="1920"
     inkscape:window-height="1027"
     inkscape:window-x="0"
     inkscape:window-y="0"
     inkscape:window-maximized="1"
     units="px"
     fit-margin-top="0"
     fit-margin-left="0"
     fit-margin-right="0"
     fit-margin-bottom="0"
     showborder="true"
     inkscape:showpageshadow="true"
     showguides="true"
     inkscape:guide-bbox="true"
     inkscape:lockguides="false">
    <sodipodi:guide
       position="9.2411051,60.308786"
       orientation="1,0"
       id="guide938"
       inkscape:locked="false" />
    <sodipodi:guide
       position="56.873751,59.111806"
       orientation="1,0"
       id="guide940"
       inkscape:locked="false" />
    <sodipodi:guide
       position="5.934793,56.881421"
       orientation="0,-1"
       id="guide942"
       inkscape:locked="false" />
    <sodipodi:guide
       position="52.614665,9.2823182"
       orientation="0,-1"
       id="guide944"
       inkscape:locked="false" />
    <sodipodi:guide
       position="38.470041,33.091492"
       orientation="0,-1"
       id="guide875" />
    <sodipodi:guide
       position="32.932681,39.748097"
       orientation="1,0"
       id="guide879" />
    <sodipodi:guide
       position="-3.6081386,14.696449"
       orientation="0,-1"
       id="guide887" />
  </sodipodi:namedview>
  <metadata
     id="metadata5">
    <rdf:RDF>
      <cc:Work
         rdf:about="">
        <dc:format>image/svg+xml</dc:format>
        <dc:type
           rdf:resource="http://purl.org/dc/dcmitype/StillImage" />
        <dc:title />
      </cc:Work>
    </rdf:RDF>
  </metadata>
  <g
     inkscape:label="Layer 1"
     inkscape:groupmode="layer"
     id="layer1"
     transform="translate(-0.08041364,-0.51138639)">
    <g
       aria-label="&amp;"
       id="text1469"
       style="font-weight:bold;font-size:58.9933px;line-height:1.25;font-family:'Noto Sans';-inkscape-font-specification:'Noto Sans Bold';fill:#000000;stroke-width:41.962"
       inkscape:transform-center-x="5.0064505"
       inkscape:transform-center-y="3.5629031">
      <path
         d="m 54.843842,49.798438 q -0.648926,1.769799 -1.828792,2.418725 -1.179866,0.648926 -3.952551,0.648926 -4.070538,0 -9.143962,-2.890672 -4.778457,2.890672 -11.444701,2.890672 -17.285037,0 -17.285037,-12.860539 0,-3.598592 2.064766,-6.725237 2.123759,-3.185638 6.135303,-5.663357 -1.474832,-3.952551 -1.474832,-6.25329 0,-5.604363 3.421611,-8.966982 3.480605,-3.421611 9.261948,-3.421611 4.601478,0 7.13819,2.123759 2.536712,2.123759 2.536712,6.017317 0,3.244631 -2.300739,6.135303 -2.241745,2.890672 -6.135303,4.542484 l -2.418726,-2.595705 q 1.592819,-1.297853 2.477719,-2.418725 0.943893,-1.120873 1.297853,-2.241746 0.412953,-1.120873 0.412953,-2.477719 0,-1.828792 -0.943893,-2.831678 -0.943893,-1.061879 -2.595705,-1.061879 -2.123759,0 -3.244632,1.533825 -1.120873,1.533826 -1.120873,4.424498 0,5.19141 3.775572,10.854767 3.834564,5.663357 10.677787,10.618795 0.766913,-1.592819 0.766913,-4.011545 0,-1.946779 -0.589933,-4.129531 h -1.946779 q -1.120873,0 -1.533826,-0.294966 -0.412953,-0.294967 -0.412953,-1.120873 0,-0.648926 0.235973,-1.710806 0.235974,-1.120873 0.53094,-1.828792 h 13.155506 q 1.120873,0 1.533826,0.294966 0.412953,0.294967 0.412953,1.120873 0,0.648926 -0.235973,1.769799 -0.235973,1.061879 -0.53094,1.769799 H 46.76176 q 0.471946,1.887786 0.471946,4.011545 0,4.070537 -1.592819,7.197182 5.250404,2.359732 10.028861,2.949665 z M 34.373167,46.258839 Q 26.822024,40.713469 21.807593,32.5134 q -2.654698,3.421612 -2.654698,6.60725 0,4.011545 2.536712,6.194297 2.595705,2.123759 7.256176,2.123759 3.067652,0 5.427384,-1.179867 z"
         style="font-style:normal;font-variant:normal;font-weight:bold;font-stretch:normal;font-size:58.9933px;font-family:Bookerly;-inkscape-font-specification:'Bookerly Bold';text-align:center;text-anchor:middle;fill:#000000;stroke-width:41.962"
         id="path10284" />
    </g>
  </g>
</svg>
